Zander Gordan - Put Your Money Where Your Mouth Is: Built For the Postseason Edition
…
Rows: 30 Columns: 3
── Column specification ────────────────────────────────────────────────────────
Delimiter: ","
chr (1): team
dbl (1): Ewins
num (1): OddsWS

ℹ Use `spec()` to retrieve the full column specification for this data.
ℹ Specify the column types or set `show_col_types = FALSE` to quiet this message.

df

# A tibble: 30 × 3
   team      Ewins OddsWS
   <chr>     <dbl>  <dbl>
 1 Dodgers   104.     320
 2 Braves    102.     450
 3 Astros     93.5    700
 4 Yankees    91.5    950
 5 Phillies   89.5   1500
 6 Orioles    89.5   1400
 7 Rangers    88.5   1400
 8 Mariners   87.5   2000
 9 Twins      87.5   2100
10 Blue Jays  86.5   1800
# ℹ 20 more rows
…
